…
## An Example Use Case

Consider the case where you want to create a function that works for a specific
type of data format. Perhaps there you are interested in a specific column and
want to ensure your data has this column present. For instance, let us take a
look at the following dataset.

```
#> # A tibble: 832 × 10
#>    sample     gene_id       gene  mutation_name  exonic_func  aa_change targeted
#>    <chr>      <chr>         <chr> <chr>          <chr>        <chr>     <chr>
#>  1 D10-JJJ-23 PF3D7_0106300 atp6  atp6-Ala623Glu missense_va… Ala623Glu Yes
#>  2 D10-JJJ-43 PF3D7_0106300 atp6  atp6-Ala623Glu missense_va… Ala623Glu Yes
#>  3 D10-JJJ-55 PF3D7_0106300 atp6  atp6-Ala623Glu missense_va… Ala623Glu Yes
#>  4 D10-JJJ-5  PF3D7_0106300 atp6  atp6-Ala623Glu missense_va… Ala623Glu Yes
#>  5 D10-JJJ-47 PF3D7_0106300 atp6  atp6-Ala623Glu missense_va… Ala623Glu Yes
#>  6 D10-JJJ-15 PF3D7_0106300 atp6  atp6-Ala623Glu missense_va… Ala623Glu Yes
#>  7 D10-JJJ-27 PF3D7_0106300 atp6  atp6-Ala623Glu missense_va… Ala623Glu Yes
#>  8 D10-JJJ-10 PF3D7_0106300 atp6  atp6-Ala623Glu missense_va… Ala623Glu Yes
#>  9 D10-JJJ-28 PF3D7_0106300 atp6  atp6-Ala623Glu missense_va… Ala623Glu Yes
#> 10 D10-JJJ-52 PF3D7_0106300 atp6  atp6-Ala623Glu missense_va… Ala623Glu Yes
#> # … with 822 more rows, and 3 more variables: ref_umi_count <dbl>,
#> #   alt_umi_count <dbl>, coverage <dbl>
```
…
